get:
  tags:
    - Issue custom field options (apps)
  summary: Get all issue field options
  description: >-
    Returns a [paginated](#pagination) list of all the options of a select list
    issue field. A select list issue field is a type of [issue
    field](https://developer.atlassian.com/cloud/jira/platform/modules/issue-field/)
    that enables a user to select a value from a list of options.


    Note that this operation **only works for issue field select list options
    added by Connect apps**, it cannot be used with issue field select list
    options created in Jira or using operations from the [Issue custom field
    options](#api-group-Issue-custom-field-options) resource.


    **[Permissions](#permissions) required:** *Administer Jira* [global
    permission](https://confluence.atlassian.com/x/x4dKLg). Jira permissions are
    not required for the app providing the field.
  operationId: getAllIssueFieldOptions
  parameters:
    - name: startAt
      in: query
      description: >-
        The index of the first item to return in a page of results (page
        offset).
      schema:
        type: integer
        format: int64
        default: 0
    - name: maxResults
      in: query
      description: The maximum number of items to return per page.
      schema:
        type: integer
        format: int32
        default: 50
    - name: fieldKey
      in: path
      description: >-
        The field key is specified in the following format:
        **$(app-key)\_\_$(field-key)**. For example,
        *example-add-on\_\_example-issue-field*. To determine the `fieldKey`
        value, do one of the following:

         *  open the app's plugin descriptor, then **app-key** is the key at the top and **field-key** is the key in the `jiraIssueFields` module. **app-key** can also be found in the app listing in the Atlassian Universal Plugin Manager.
         *  run [Get fields](#api-rest-api-2-field-get) and in the field details the value is returned in `key`. For example, `"key": "teams-add-on__team-issue-field"`
      required: true
      schema:
        type: string
  responses:
    '200':
      description: Returned if the request is successful.
      content:
        application/json:
          schema:
            $ref: ../components/schemas/PageBeanIssueFieldOption.yaml
          example: >-
            {"self":"https://your-domain.atlassian.net/rest/api/2/field/fieldKey/option?startAt=0&maxResults=1","nextPage":"https://your-domain.atlassian.net/rest/api/2/field/fieldKey/option?startAt=1&maxResults=1","maxResults":1,"startAt":0,"total":10,"isLast":false,"values":[{"id":1,"value":"Team
            1","properties":{"leader":{"name":"Leader
            Name","email":"lname@example.com"},"members":42,"description":"The
            team's
            description","founded":"2016-06-06"},"config":{"scope":{"projects":[],"projects2":[{"id":1001,"attributes":["notSelectable"]},{"id":1002,"attributes":["notSelectable"]}],"global":{}},"attributes":[]}}]}
    '400':
      description: Returned if the field is not found or does not support options.
    '403':
      description: >-
        Returned if the request is not authenticated as a Jira administrator or
        the app that provided the field.
  deprecated: false
  security:
    - basicAuth: []
    - OAuth2:
        - manage:jira-configuration
  x-atlassian-oauth2-scopes:
    - state: Current
      scheme: OAuth2
      scopes:
        - manage:jira-configuration
    - state: Beta
      scheme: OAuth2
      scopes:
        - read:field.option:jira
  x-atlassian-connect-scope: NONE
post:
  tags:
    - Issue custom field options (apps)
  summary: Create issue field option
  description: >-
    Creates an option for a select list issue field.


    Note that this operation **only works for issue field select list options
    added by Connect apps**, it cannot be used with issue field select list
    options created in Jira or using operations from the [Issue custom field
    options](#api-group-Issue-custom-field-options) resource.


    **[Permissions](#permissions) required:** *Administer Jira* [global
    permission](https://confluence.atlassian.com/x/x4dKLg). Jira permissions are
    not required for the app providing the field.
  operationId: createIssueFieldOption
  parameters:
    - name: fieldKey
      in: path
      description: >-
        The field key is specified in the following format:
        **$(app-key)\_\_$(field-key)**. For example,
        *example-add-on\_\_example-issue-field*. To determine the `fieldKey`
        value, do one of the following:

         *  open the app's plugin descriptor, then **app-key** is the key at the top and **field-key** is the key in the `jiraIssueFields` module. **app-key** can also be found in the app listing in the Atlassian Universal Plugin Manager.
         *  run [Get fields](#api-rest-api-2-field-get) and in the field details the value is returned in `key`. For example, `"key": "teams-add-on__team-issue-field"`
      required: true
      schema:
        type: string
  requestBody:
    content:
      application/json:
        schema:
          $ref: ../components/schemas/IssueFieldOptionCreateBean.yaml
        example:
          value: Team 1
          config:
            scope:
              projects2:
                - attributes:
                    - notSelectable
                  id: 1001
                - attributes:
                    - notSelectable
                  id: 1002
              projects: []
              global: {}
            attributes: []
          properties:
            leader:
              name: Leader Name
              email: lname@example.com
            members: 42
            founded: '2016-06-06'
            description: The team's description
    required: true
  responses:
    '200':
      description: Returned if the request is successful.
      content:
        application/json:
          schema:
            $ref: ../components/schemas/IssueFieldOption.yaml
          example: >-
            {"id":1,"value":"Team 1","properties":{"leader":{"name":"Leader
            Name","email":"lname@example.com"},"members":42,"description":"The
            team's
            description","founded":"2016-06-06"},"config":{"scope":{"projects":[],"projects2":[{"id":1001,"attributes":["notSelectable"]},{"id":1002,"attributes":["notSelectable"]}],"global":{}},"attributes":[]}}
    '400':
      description: Returned if the option is invalid.
    '403':
      description: >-
        Returned if the request is not authenticated as a Jira administrator or
        the app that provided the field.
    '404':
      description: Returned if the field is not found or does not support options.
  deprecated: false
  security:
    - basicAuth: []
    - OAuth2:
        - manage:jira-configuration
  x-atlassian-oauth2-scopes:
    - state: Current
      scheme: OAuth2
      scopes:
        - manage:jira-configuration
    - state: Beta
      scheme: OAuth2
      scopes:
        - write:field.option:jira
  x-atlassian-connect-scope: NONE
